<mxfile host="app.diagrams.net" modified="2024-02-10T07:34:10.639Z" agent="Mozilla/5.0 (Windows NT 10.0; Win64; x64) AppleWebKit/537.36 (KHTML, like Gecko) Chrome/121.0.0.0 Safari/537.36" etag="bMmMRWdk6bNAdmh6LAYs" version="23.1.2" type="device">
  <diagram name="Page-1" id="R1rW_dGpVnShRwU7yBef">
    <mxGraphModel dx="2284" dy="772" grid="1" gridSize="10" guides="1" tooltips="1" connect="1" arrows="1" fold="1" page="1" pageScale="1" pageWidth="850" pageHeight="1100" math="0" shadow="0">
      <root>
        <mxCell id="0" />
        <mxCell id="1" parent="0" />
        <mxCell id="E1M4ts0MrxAobAGlnfHZ-1" value="" style="rounded=1;whiteSpace=wrap;html=1;" vertex="1" parent="1">
          <mxGeometry x="-425" y="20" width="480" height="510" as="geometry" />
        </mxCell>
        <mxCell id="E1M4ts0MrxAobAGlnfHZ-2" value="&lt;h1&gt;Heap&lt;/h1&gt;" style="rounded=1;whiteSpace=wrap;html=1;" vertex="1" parent="1">
          <mxGeometry x="-345" y="50" width="320" height="160" as="geometry" />
        </mxCell>
        <mxCell id="E1M4ts0MrxAobAGlnfHZ-3" value="&lt;h1&gt;Callstack&lt;/h1&gt;" style="rounded=1;whiteSpace=wrap;html=1;" vertex="1" parent="1">
          <mxGeometry x="-325" y="230" width="300" height="270" as="geometry" />
        </mxCell>
        <mxCell id="E1M4ts0MrxAobAGlnfHZ-4" value="&lt;h1&gt;Macrotask Queue&lt;/h1&gt;" style="rounded=1;whiteSpace=wrap;html=1;" vertex="1" parent="1">
          <mxGeometry x="550" y="190" width="240" height="60" as="geometry" />
        </mxCell>
        <mxCell id="E1M4ts0MrxAobAGlnfHZ-5" value="&lt;h1&gt;Microtask Queue&lt;/h1&gt;" style="rounded=1;whiteSpace=wrap;html=1;" vertex="1" parent="1">
          <mxGeometry x="550" y="280" width="250" height="60" as="geometry" />
        </mxCell>
        <mxCell id="E1M4ts0MrxAobAGlnfHZ-6" value="&lt;h1&gt;Event Loop&lt;/h1&gt;" style="ellipse;whiteSpace=wrap;html=1;aspect=fixed;" vertex="1" parent="1">
          <mxGeometry x="220" y="220" width="180" height="180" as="geometry" />
        </mxCell>
        <mxCell id="E1M4ts0MrxAobAGlnfHZ-7" value="" style="endArrow=classic;html=1;rounded=0;exitX=0.5;exitY=0;exitDx=0;exitDy=0;entryX=0;entryY=0.5;entryDx=0;entryDy=0;" edge="1" parent="1" source="E1M4ts0MrxAobAGlnfHZ-6" target="E1M4ts0MrxAobAGlnfHZ-4">
          <mxGeometry width="50" height="50" relative="1" as="geometry">
            <mxPoint x="310" y="210" as="sourcePoint" />
            <mxPoint x="530" y="220" as="targetPoint" />
          </mxGeometry>
        </mxCell>
        <mxCell id="E1M4ts0MrxAobAGlnfHZ-8" value="" style="endArrow=classic;html=1;rounded=0;entryX=0;entryY=0.5;entryDx=0;entryDy=0;" edge="1" parent="1" source="E1M4ts0MrxAobAGlnfHZ-6" target="E1M4ts0MrxAobAGlnfHZ-5">
          <mxGeometry width="50" height="50" relative="1" as="geometry">
            <mxPoint x="440" y="410" as="sourcePoint" />
            <mxPoint x="490" y="360" as="targetPoint" />
          </mxGeometry>
        </mxCell>
        <mxCell id="E1M4ts0MrxAobAGlnfHZ-11" value="" style="endArrow=classic;html=1;rounded=0;exitX=0.022;exitY=0.644;exitDx=0;exitDy=0;exitPerimeter=0;" edge="1" parent="1" source="E1M4ts0MrxAobAGlnfHZ-6">
          <mxGeometry width="50" height="50" relative="1" as="geometry">
            <mxPoint x="-140" y="390" as="sourcePoint" />
            <mxPoint x="-20" y="340" as="targetPoint" />
          </mxGeometry>
        </mxCell>
        <mxCell id="E1M4ts0MrxAobAGlnfHZ-12" value="&lt;h2&gt;Web API&lt;br&gt;setTimeout()&lt;br&gt;setInterval()&lt;/h2&gt;" style="rounded=1;whiteSpace=wrap;html=1;" vertex="1" parent="1">
          <mxGeometry x="575" y="20" width="200" height="90" as="geometry" />
        </mxCell>
        <mxCell id="E1M4ts0MrxAobAGlnfHZ-13" value="" style="endArrow=classic;html=1;rounded=0;exitX=0.5;exitY=1;exitDx=0;exitDy=0;entryX=0.529;entryY=-0.017;entryDx=0;entryDy=0;entryPerimeter=0;" edge="1" parent="1" source="E1M4ts0MrxAobAGlnfHZ-12" target="E1M4ts0MrxAobAGlnfHZ-4">
          <mxGeometry width="50" height="50" relative="1" as="geometry">
            <mxPoint x="690" y="190" as="sourcePoint" />
            <mxPoint x="740" y="140" as="targetPoint" />
          </mxGeometry>
        </mxCell>
        <mxCell id="E1M4ts0MrxAobAGlnfHZ-14" value="&lt;h2&gt;fetch() / XMLHttpRequest&lt;/h2&gt;" style="rounded=1;whiteSpace=wrap;html=1;" vertex="1" parent="1">
          <mxGeometry x="590" y="440" width="180" height="60" as="geometry" />
        </mxCell>
        <mxCell id="E1M4ts0MrxAobAGlnfHZ-15" value="" style="endArrow=classic;html=1;rounded=0;exitX=0.5;exitY=0;exitDx=0;exitDy=0;entryX=0.5;entryY=1;entryDx=0;entryDy=0;" edge="1" parent="1" source="E1M4ts0MrxAobAGlnfHZ-14" target="E1M4ts0MrxAobAGlnfHZ-5">
          <mxGeometry width="50" height="50" relative="1" as="geometry">
            <mxPoint x="650" y="430" as="sourcePoint" />
            <mxPoint x="700" y="380" as="targetPoint" />
          </mxGeometry>
        </mxCell>
      </root>
    </mxGraphModel>
  </diagram>
</mxfile>
